Mini-Project #03: NYC Street Trees and Council Districts – STA9750 2025 FALL
…
comparison_summary <- trees_with_districts |>
  sf::st_drop_geometry() |>
  dplyr::group_by(COUNDIST) |>
  dplyr::summarise(
    n_trees   = dplyr::n(),
    n_dead    = sum(tolower(tpcondition) == "dead", na.rm = TRUE),
    frac_dead = n_dead / n_trees,
    area_m2   = dplyr::first(area_m2),
    density   = n_trees / area_m2,
    .groups   = "drop"
  )

comparison_summary

# A tibble: 51 × 6
   COUNDIST n_trees n_dead frac_dead   area_m2   density
      <dbl>   <int>  <int>     <dbl>     <dbl>     <dbl>
 1        1     173     21     0.121 14757220. 0.0000117
 2        2     232     40     0.172  5295436. 0.0000438
 3        3     319     48     0.150 10300124. 0.0000310
 4        4     316     54     0.171  8389862. 0.0000377
 5        5     189     22     0.116  5937286. 0.0000318
 6        6     198     34     0.172  9870304. 0.0000201
 7        7     183     36     0.197  8086525. 0.0000226
 8        8     138     40     0.290 12051724. 0.0000115
 9        9     183     31     0.169  5733623. 0.0000319
10       10     131     24     0.183 11728790. 0.0000112
# ℹ 41 more rows
…
